{
  "file_generated_by": "FlutterFire CLI",
  "purpose": "FirebaseAppID & ProjectID for this Firebase app in this directory",
  "GOOGLE_APP_ID": "1:53210988872:ios:225194295e978ad565337d",
  "FIREBASE_PROJECT_ID": "fruk-58135",
  "GCM_SENDER_ID": "53210988872"
}