{
  "project_info": {
    "project_number": "53210988872",
    "project_id": "fruk-58135",
    "storage_bucket": "fruk-58135.appspot.com"
  },
  "client": [
    {
      "client_info": {
        "mobilesdk_app_id": "1:53210988872:android:1d4395f7928155fb65337d",
        "android_client_info": {
          "package_name": "io.fruk.fruk_app"
        }
      },
      "oauth_client": [],
      "api_key": [
        {
          "current_key": "AIzaSyB8jRO2NcbL-K_Z31JJmUw1orc3E0YTAm4"
        }
      ],
      "services": {
        "appinvite_service": {
          "other_platform_oauth_client": []
        }
      }
    }
  ],
  "configuration_version": "1"
}